{
    "fluentMethods": true,
    "relationships": [
        {
            "relationshipName": "lastLocation",
            "otherEntityName": "lastLocation",
            "relationshipType": "one-to-many",
            "otherEntityRelationshipName": "device"
        }
    ],
    "fields": [
        {
            "fieldName": "deviceType",
            "fieldType": "DeviceType",
            "fieldValues": "COMPUTER,PHONE,TABLET,OTHER",
            "fieldValidateRules": [
                "required"
            ]
        },
        {
            "fieldName": "name",
            "fieldType": "String"
        }
    ],
    "changelogDate": "20170321194423",
    "dto": "mapstruct",
    "service": "serviceImpl",
    "entityTableName": "device",
    "pagination": "infinite-scroll"
}
